name1#address1#+071122334455#email@domain.com
name2#address2#+071122334456#email2@domain.com
name3#address3#+071122334457#email3@domain.com
name4#address4#0752130778#email4@yahoo.com
name5#address5#0755120456#aaa@yahoo.com
name5#pappap#0754253625#pp@yahoo.com
aaaaaa#adressA#0752130778#casda@yahoo.com
Catalina#Tarcau,Neamt#0752130778#cata@yahoo.com
Catalina#Tarcau,Neamt#0755887799#aa@yahoo.com
1Catalina#Tarcau, Neamt#0752130778#cata@yahoo.com
Ana#Cluj#07894561231#aaa@yahoo.com
Ana#Cluj#0752130779#ana@yahoo.com
aa#aa#0755447788#aa
22aaaaa#221aaaaa#0755447788#222211
name#address1#+071122334455#email@domain.com
name#address1#+071122334455#email@domain.com
name#address1#+071122334455#email@domain.com
name#address1#+071122334455#email@domain.com
name#address1#+071122334455#email@domain.com
name#address1#+071122334455#email@domain.com
name#address1#+071122334455#email@domain.com
name#address1#+071122334455#email@domain.com
#address#0756434532#mail@yahoo.com
Nume#address#0756745839#mail@yahoo.com
N#address#0756745839#mail@yahoo.com
Nume#a#0756745839#mail@yahoo.com
Nume#address#0756#mail@yahoo.com
Nume#address#0754dg3452#mail@yahoo.com
Nume#address#01234567890123456789012345678901234567890123456789012345678901234567890123456789012345678901234567890123456789012345678901234567890123456789012345678901234567890123456789012345678901234567890123456789012345678901234567890123456789012345678901234567890123#mail@yahoo.com
Nume##0765443453#mail@yahoo.com
#address#0756434532#mail@yahoo.com
Nume#address#0756745839#mail@yahoo.com
N#address#0756745839#mail@yahoo.com
Nume#a#0756745839#mail@yahoo.com
Nume#address#0756#mail@yahoo.com
Nume#address#0754dg3452#mail@yahoo.com
Nume#address#01234567890123456789012345678901234567890123456789012345678901234567890123456789012345678901234567890123456789012345678901234567890123456789012345678901234567890123456789012345678901234567890123456789012345678901234567890123456789012345678901234567890123#mail@yahoo.com
Nume##0765443453#mail@yahoo.com
#address#0756434532#mail@yahoo.com
Nume#address#0756745839#mail@yahoo.com
N#address#0756745839#mail@yahoo.com
Nume#a#0756745839#mail@yahoo.com
Nume#address#0756#mail@yahoo.com
Nume#address#0754dg3452#mail@yahoo.com
Nume#address#01234567890123456789012345678901234567890123456789012345678901234567890123456789012345678901234567890123456789012345678901234567890123456789012345678901234567890123456789012345678901234567890123456789012345678901234567890123456789012345678901234567890123#mail@yahoo.com
Nume##0765443453#mail@yahoo.com
12#address#0756434532#mail@yahoo.com
Nume#address#0756745839#mail@yahoo.com
N#address#0756745839#mail@yahoo.com
Nume#a#0756745839#mail@yahoo.com
Nume#address#0756#mail@yahoo.com
Nume#address#0754dg3452#mail@yahoo.com
Nume#address#01234567890123456789012345678901234567890123456789012345678901234567890123456789012345678901234567890123456789012345678901234567890123456789012345678901234567890123456789012345678901234567890123456789012345678901234567890123456789012345678901234567890123#mail@yahoo.com
Nume##0765443453#mail@yahoo.com
1#address#0756434532#mail@yahoo.com
Nume#address#0756745839#mail@yahoo.com
N#address#0756745839#mail@yahoo.com
Nume#a#0756745839#mail@yahoo.com
Nume#address#0756#mail@yahoo.com
Nume#address#0754dg3452#mail@yahoo.com
Nume#address#01234567890123456789012345678901234567890123456789012345678901234567890123456789012345678901234567890123456789012345678901234567890123456789012345678901234567890123456789012345678901234567890123456789012345678901234567890123456789012345678901234567890123#mail@yahoo.com
Nume##0765443453#mail@yahoo.com
